[
  {
    "id": 1,
    "brandName": "Toyota",
    "model": "Camry",
    "price": 25000,
    "image": "https://dealer-content.s3.amazonaws.com/images/models/toyota/2021/camry/colors/celestial-silver-metallic-midnight-black-metallic.png",
    "yearArticle": 2022,
    "color": "grey"
  },
  {
    "id": 2,
    "brandName": "Honda",
    "model": "Civic",
    "price": 22000,
    "image": "https://sixspeedblog.files.wordpress.com/2017/08/img_3193.jpg",
    "yearArticle": 2021,
    "color": "green"
  },
  {
    "id": 3,
    "brandName": "Ford",
    "model": "Mustang",
    "price": 35000,
    "image": "https://encrypted-tbn0.gstatic.com/images?q=tbn:ANd9GcT-xEmAHB_1iGo_lhPv908XkJOIUW5g7MNEntTtOz6m&s",
    "yearArticle": 2023,
    "color": "red"
  },
  {
    "id": 4,
    "brandName": "Chevrolet",
    "model": "Camaro",
    "price": 32000,
    "image": "https://i.etsystatic.com/15554723/r/il/49ff8e/4450336229/il_570xN.4450336229_te2f.jpg",
    "color": "yellow"
  },
  {
    "id": 5,
    "brandName": "Nissan",
    "model": "Altima",
    "price": 23000,
    "image": "https://encrypted-tbn0.gstatic.com/images?q=tbn:ANd9GcRXkVpfxGpaAXeFUhunKIY2_daNbknNoEPolU-1eydk&s",
    "yearArticle": 2021,
    "color": "blue"
  },
  {
    "id": 6,
    "brandName": "BMW",
    "model": "X5",
    "price": 50000,
    "image": "https://www.bmw-m.com/content/dam/bmw/marketBMW_M/common/topics/magazine-article-pool/2021/x5-x6-edition-black-vermilion/bmw-x7-edition-frozen-black-ms-01.jpg",
    "yearArticle": 2023,
    "color": "black"
  },
  {
    "id": 7,
    "brandName": "Mercedes-Benz",
    "model": "E-Class",
    "price": 45000,
    "image": "https://imgd.aeplcdn.com/370x208/n/u88rf4a_1518971.jpg?q=75&q=75",
    "yearArticle": 2022,
    "color": "grey"
  },
  {
    "id": 8,
    "brandName": "Audi",
    "model": "A4",
    "price": 40000,
    "image": "https://m.atcdn.co.uk/vms/media/37c57fb892834ce89a5bddcb745c0519.jpg",
    "yearArticle": 2023,
    "color": "white"
  },
  {
    "id": 9,
    "brandName": "Volkswagen",
    "model": "Golf",
    "price": 21000,
    "image": "https://carsguide-res.cloudinary.com/image/upload/f_auto%2Cfl_lossy%2Cq_auto%2Ct_default/v1/editorial/review/hero_image/2020-volkswagen-golf-r-final-edition-1001x565-%281%29.jpg",
    "yearArticle": 2022,
    "color": "green"
  },
  {
    "id": 10,
    "brandName": "Kia",
    "model": "Sorento",
    "price": 28000,
    "image": "https://di-uploads-pod9.dealerinspire.com/capitolkia/uploads/2022/01/2022-kia-sorento-sapphire-blue.jpg",
    "yearArticle": 2021,
    "color": "blue"
  }
]